-------------------------------------------------------------------------------
Test set: com.sharework.api_getway.ApiGetwayApplicationTests
-------------------------------------------------------------------------------
Tests run: 1, Failures: 0, Errors: 1, Skipped: 0, Time elapsed: 0.137 s <<< FAILURE! - in com.sharework.api_getway.ApiGetwayApplicationTests
com.sharework.api_getway.ApiGetwayApplicationTests  Time elapsed: 0.137 s  <<< ERROR!
java.lang.IllegalStateException: Unable to find a @SpringBootConfiguration, you need to use @ContextConfiguration or @SpringBootTest(classes=...) with your test

